{
	"info": {
		"_postman_id": "f337d735-0e29-4d1b-bff3-6c00b94e4a60",
		"name": "Desafio Senior",
		"schema": "https://schema.getpostman.com/json/collection/v2.1.0/collection.json"
	},
	"item": [
		{
			"name": "Produto",
			"item": [
				{
					"name": "Criar produto",
					"request": {
						"method": "POST",
						"header": [],
						"body": {
							"mode": "raw",
							"raw": "{\n    \"tipoProduto\": \"PRODUTO\",\n    \"valor\": 500,\n    \"nome\": \"teste-produto\"\n}",
							"options": {
								"raw": {
									"language": "json"
								}
							}
						},
						"url": {
							"raw": "http://localhost:8080/produtos",
							"protocol": "http",
							"host": [
								"localhost"
							],
							"port": "8080",
							"path": [
								"produtos"
							]
						}
					},
					"response": []
				},
				{
					"name": "Listar produtos",
					"request": {
						"method": "GET",
						"header": [],
						"url": {
							"raw": "http://localhost:8080/produtos/0/5",
							"protocol": "http",
							"host": [
								"localhost"
							],
							"port": "8080",
							"path": [
								"produtos",
								"0",
								"5"
							]
						}
					},
					"response": []
				},
				{
					"name": "Atualizar produto",
					"request": {
						"method": "PUT",
						"header": [],
						"body": {
							"mode": "raw",
							"raw": "{\n        \"id\": \"2ca44bb4-d215-496f-8a62-53c4c6c83d53\",\n        \"tipoProduto\": \"SERVICO\",\n        \"valor\": 500.0,\n        \"ativo\": false,\n        \"nome\": \"teste3\"\n    }",
							"options": {
								"raw": {
									"language": "json"
								}
							}
						},
						"url": {
							"raw": "http://localhost:8080/produtos/2ca44bb4-d215-496f-8a62-53c4c6c83d53",
							"protocol": "http",
							"host": [
								"localhost"
							],
							"port": "8080",
							"path": [
								"produtos",
								"2ca44bb4-d215-496f-8a62-53c4c6c83d53"
							]
						}
					},
					"response": []
				},
				{
					"name": "Obter produto",
					"request": {
						"method": "GET",
						"header": [],
						"url": {
							"raw": "http://localhost:8080/produtos/2a314be5-eec8-45b1-9199-3bad3d2fb7d3",
							"protocol": "http",
							"host": [
								"localhost"
							],
							"port": "8080",
							"path": [
								"produtos",
								"2a314be5-eec8-45b1-9199-3bad3d2fb7d3"
							]
						}
					},
					"response": []
				},
				{
					"name": "Excluir produto",
					"request": {
						"method": "DELETE",
						"header": [],
						"url": {
							"raw": "http://localhost:8080/produtos/2ca44bb4-d215-496f-8a62-53c4c6c83d53",
							"protocol": "http",
							"host": [
								"localhost"
							],
							"port": "8080",
							"path": [
								"produtos",
								"2ca44bb4-d215-496f-8a62-53c4c6c83d53"
							]
						}
					},
					"response": []
				}
			],
			"protocolProfileBehavior": {}
		},
		{
			"name": "Pedido",
			"item": [
				{
					"name": "Criar pedido",
					"request": {
						"method": "POST",
						"header": [],
						"body": {
							"mode": "raw",
							"raw": "{\n    \"dataCriacao\": \"2020-12-05 17:30\"\n}",
							"options": {
								"raw": {
									"language": "json"
								}
							}
						},
						"url": {
							"raw": "http://localhost:8080/pedidos",
							"protocol": "http",
							"host": [
								"localhost"
							],
							"port": "8080",
							"path": [
								"pedidos"
							]
						}
					},
					"response": []
				},
				{
					"name": "Listar pedidos",
					"request": {
						"method": "GET",
						"header": [],
						"url": {
							"raw": "http://localhost:8080/pedidos/0/5",
							"protocol": "http",
							"host": [
								"localhost"
							],
							"port": "8080",
							"path": [
								"pedidos",
								"0",
								"5"
							]
						}
					},
					"response": []
				},
				{
					"name": "Atualizar pedido",
					"request": {
						"method": "PUT",
						"header": [],
						"body": {
							"mode": "raw",
							"raw": "{\n    \"id\": \"1653bfdd-c247-4f33-ab9d-58924cf6ef07\",\n    \"situacaoPedido\": \"ABERTO\",\n    \"dataCriacao\": \"2020-12-05\",\n    \"desconto\": 1.0,\n    \"valorTotal\": null,\n    \"valorComDesconto\": null\n}",
							"options": {
								"raw": {
									"language": "json"
								}
							}
						},
						"url": {
							"raw": "http://localhost:8080/pedidos/1653bfdd-c247-4f33-ab9d-58924cf6ef07",
							"protocol": "http",
							"host": [
								"localhost"
							],
							"port": "8080",
							"path": [
								"pedidos",
								"1653bfdd-c247-4f33-ab9d-58924cf6ef07"
							]
						}
					},
					"response": []
				},
				{
					"name": "Obter pedido",
					"request": {
						"method": "GET",
						"header": [],
						"url": {
							"raw": "http://localhost:8080/pedidos/1653bfdd-c247-4f33-ab9d-58924cf6ef07",
							"protocol": "http",
							"host": [
								"localhost"
							],
							"port": "8080",
							"path": [
								"pedidos",
								"1653bfdd-c247-4f33-ab9d-58924cf6ef07"
							]
						}
					},
					"response": []
				},
				{
					"name": "Excluir pedido",
					"request": {
						"method": "DELETE",
						"header": [],
						"url": {
							"raw": "http://localhost:8080/pedidos/23b0df02-2640-44ce-a151-de9738ba5708",
							"protocol": "http",
							"host": [
								"localhost"
							],
							"port": "8080",
							"path": [
								"pedidos",
								"23b0df02-2640-44ce-a151-de9738ba5708"
							]
						}
					},
					"response": []
				}
			],
			"protocolProfileBehavior": {}
		},
		{
			"name": "Item Pedido",
			"item": [
				{
					"name": "Criar Item Pedido",
					"request": {
						"method": "POST",
						"header": [],
						"body": {
							"mode": "raw",
							"raw": "{\n    \"produto\": {\n        \"id\": \"2ca44bb4-d215-496f-8a62-53c4c6c83d53\",\n        \"tipoProduto\": \"SERVICO\",\n        \"valor\": 500.0,\n        \"ativo\": false,\n        \"nome\": \"teste3\"\n    },\n    \"quantidade\": 1\n}",
							"options": {
								"raw": {
									"language": "json"
								}
							}
						},
						"url": {
							"raw": "http://localhost:8080/pedidos/1653bfdd-c247-4f33-ab9d-58924cf6ef07/itens",
							"protocol": "http",
							"host": [
								"localhost"
							],
							"port": "8080",
							"path": [
								"pedidos",
								"1653bfdd-c247-4f33-ab9d-58924cf6ef07",
								"itens"
							]
						}
					},
					"response": []
				},
				{
					"name": "Listar itens pedido",
					"request": {
						"method": "GET",
						"header": [],
						"url": {
							"raw": "http://localhost:8080/pedidos/1653bfdd-c247-4f33-ab9d-58924cf6ef07/itens/0/5",
							"protocol": "http",
							"host": [
								"localhost"
							],
							"port": "8080",
							"path": [
								"pedidos",
								"1653bfdd-c247-4f33-ab9d-58924cf6ef07",
								"itens",
								"0",
								"5"
							]
						}
					},
					"response": []
				},
				{
					"name": "Atualizar itens pedido",
					"request": {
						"method": "PUT",
						"header": [],
						"body": {
							"mode": "raw",
							"raw": "{\n    \"id\": \"50e2dacf-b09c-443b-b006-efa118a28b9f\",\n    \"produto\": {\n        \"id\": \"3a9b4253-6341-4939-8e96-5b4510945736\",\n        \"tipoProduto\": \"SERVICO\",\n        \"valor\": 500.0,\n        \"ativo\": true,\n        \"nome\": \"teste4\"\n    },\n    \"quantidade\": 2,\n    \"total\": 500.0\n}",
							"options": {
								"raw": {
									"language": "json"
								}
							}
						},
						"url": {
							"raw": "http://localhost:8080/pedidos/1653bfdd-c247-4f33-ab9d-58924cf6ef07/itens/50e2dacf-b09c-443b-b006-efa118a28b",
							"protocol": "http",
							"host": [
								"localhost"
							],
							"port": "8080",
							"path": [
								"pedidos",
								"1653bfdd-c247-4f33-ab9d-58924cf6ef07",
								"itens",
								"50e2dacf-b09c-443b-b006-efa118a28b"
							]
						}
					},
					"response": []
				},
				{
					"name": "Obter item pedido",
					"request": {
						"method": "GET",
						"header": [],
						"url": {
							"raw": "http://localhost:8080/pedidos/1653bfdd-c247-4f33-ab9d-58924cf6ef07/itens/50e2dacf-b09c-443b-b006-efa118a28b9f",
							"protocol": "http",
							"host": [
								"localhost"
							],
							"port": "8080",
							"path": [
								"pedidos",
								"1653bfdd-c247-4f33-ab9d-58924cf6ef07",
								"itens",
								"50e2dacf-b09c-443b-b006-efa118a28b9f"
							]
						}
					},
					"response": []
				},
				{
					"name": "Excluir item pedido",
					"request": {
						"method": "DELETE",
						"header": [],
						"url": {
							"raw": "http://localhost:8080/pedidos/1653bfdd-c247-4f33-ab9d-58924cf6ef07/itens/50e2dacf-b09c-443b-b006-efa118a28b9f",
							"protocol": "http",
							"host": [
								"localhost"
							],
							"port": "8080",
							"path": [
								"pedidos",
								"1653bfdd-c247-4f33-ab9d-58924cf6ef07",
								"itens",
								"50e2dacf-b09c-443b-b006-efa118a28b9f"
							]
						}
					},
					"response": []
				}
			],
			"protocolProfileBehavior": {}
		}
	],
	"protocolProfileBehavior": {}
}